{
  "project_info": {
    "project_number": "373935976040",
    "firebase_url": "https://shoponline-365fc.firebaseio.com",
    "project_id": "shoponline-365fc",
    "storage_bucket": "shoponline-365fc.appspot.com"
  },
  "client": [
    {
      "client_info": {
        "mobilesdk_app_id": "1:373935976040:android:0f8d987ff83e6447f415dd",
        "android_client_info": {
          "package_name": "com.example.shoponline"
        }
      },
      "oauth_client": [
        {
          "client_id": "373935976040-19ggemi7mp92tonb05s9l3d2ocicbc0o.apps.googleusercontent.com",
          "client_type": 3
        }
      ],
      "api_key": [
        {
          "current_key": "AIzaSyBEojOUSWAVjjBRFwrE6I04WD-dbYNSXcg"
        }
      ],
      "services": {
        "appinvite_service": {
          "other_platform_oauth_client": [
            {
              "client_id": "373935976040-19ggemi7mp92tonb05s9l3d2ocicbc0o.apps.googleusercontent.com",
              "client_type": 3
            }
          ]
        }
      }
    }
  ],
  "configuration_version": "1"
}